Root_exc_graphs
…
nut_summary <- nut_clean %>%
  group_by(Test, Treat, Depth) %>%
  summarise(
    median = median(Results, na.rm = TRUE),
    IQR    = IQR(Results, na.rm = TRUE),
    .groups = "drop"
  )

print(nut_summary)

# A tibble: 21 × 5
   Test          Treat     Depth median    IQR
   <chr>         <chr>     <chr>  <dbl>  <dbl>
 1 Ammonia (PPS) Control   <NA>  0.522  0.172 
 2 Ammonia (PPS) Root-free <NA>  0.496  0.254 
 3 Ammonia (PPS) <NA>      <NA>  0.0137 0.0934
 4 Nitrate (NOx) Control   <NA>  0.0172 0.0720
 5 Nitrate (NOx) Root-free <NA>  0.0943 0.252 
 6 Nitrate (NOx) <NA>      <NA>  0.0967 0.456 
 7 Nitrite       Control   <NA>  1.91   2.52  
 8 Nitrite       Root-free <NA>  1.76   1.22  
 9 Nitrite       <NA>      <NA>  0.06   4.08  
10 Phosphate     Control   10 cm 0.013  0     
# ℹ 11 more rows
